%YAML 1.1
%TAG !u! tag:unity3d.com,2011:
--- !u!1045 &1
EditorBuildSettings:
  m_ObjectHideFlags: 0
  serializedVersion: 2
  m_Scenes:
  - enabled: 1
    path: Assets/Scenes/bootstrap.unity
  - enabled: 1
    path: Assets/Scenes/Scene3D_05.unity
  - enabled: 1
    path: Assets/Scenes/Scene3D_06.unity
  - enabled: 1
    path: Assets/Scenes/Scene3D_07.unity
  - enabled: 1
    path: Assets/Scenes/TextScene.unity
  - enabled: 1
    path: Assets/Scenes/ProjectorScene.unity
  - enabled: 1
    path: Assets/Scenes/MinimalScene.unity
  - enabled: 1
    path: Assets/Scenes/AudioScene.unity
